<?xml version="1.0" encoding="utf-8"?>
<!-- Generator: Adobe Illustrator 15.0.0, SVG Export Plug-In . SVG Version: 6.00 Build 0)  -->
<!DOCTYPE svg PUBLIC "-//W3C//DTD SVG 1.1//EN" "http://www.w3.org/Graphics/SVG/1.1/DTD/svg11.dtd" [
	<!ENTITY ns_extend "http://ns.adobe.com/Extensibility/1.0/">
	<!ENTITY ns_ai "http://ns.adobe.com/AdobeIllustrator/10.0/">
	<!ENTITY ns_graphs "http://ns.adobe.com/Graphs/1.0/">
	<!ENTITY ns_vars "http://ns.adobe.com/Variables/1.0/">
	<!ENTITY ns_imrep "http://ns.adobe.com/ImageReplacement/1.0/">
	<!ENTITY ns_sfw "http://ns.adobe.com/SaveForWeb/1.0/">
	<!ENTITY ns_custom "http://ns.adobe.com/GenericCustomNamespace/1.0/">
	<!ENTITY ns_adobe_xpath "http://ns.adobe.com/XPath/1.0/">
]>
<svg version="1.1" id="Layer_1" xmlns:x="&ns_extend;" xmlns:i="&ns_ai;" xmlns:graph="&ns_graphs;"
	 xmlns="http://www.w3.org/2000/svg" xmlns:xlink="http://www.w3.org/1999/xlink" x="0px" y="0px" width="252.198px"
	 height="29.098px" viewBox="166.25 17.496 252.198 29.098" enable-background="new 166.25 17.496 252.198 29.098"
	 xml:space="preserve">
<metadata>
	<sfw  xmlns="&ns_sfw;">
		<slices></slices>
		<sliceSourceBounds  x="165.75" y="17.863" width="252.198" height="29.244" bottomLeftOrigin="true"></sliceSourceBounds>
	</sfw>
</metadata>
<g>
	<path fill="#ED1C24" d="M208.234,32.598c0.171-0.512,0.427-1.11,0.598-1.622c0.853-2.475,1.707-4.949,2.56-7.424
		c0.597-1.792,1.28-3.584,1.792-5.291c0.085-0.341,0.256-0.427,0.597-0.427c1.024,0,2.048,0,3.072,0
		c0.341,0,0.512,0.085,0.512,0.512c0,9.131,0,18.261,0,27.392c0,0.428-0.17,0.512-0.597,0.512c-1.024,0-2.048,0-3.072,0
		c-0.427,0-0.597-0.17-0.597-0.597c0-5.29,0-10.581,0-15.872c0-0.085,0-0.256,0-0.341c-0.085,0-0.085,0-0.171,0
		c-0.256,0.683-0.426,1.365-0.683,1.963c-1.024,3.158-2.048,6.229-3.072,9.386c-0.085,0.256-0.256,0.427-0.512,0.427
		c-0.341,0-0.683-0.085-1.024,0c-0.512,0.085-0.683-0.171-0.853-0.597c-1.109-3.328-2.219-6.742-3.328-10.07
		c-0.085-0.341-0.256-0.768-0.427-1.195c0,0.171-0.085,0.341-0.085,0.512c0,5.291,0,10.582,0,15.872
		c0,0.428-0.085,0.598-0.597,0.598c-1.024,0-2.048,0-3.072,0c-0.426,0-0.512-0.17-0.512-0.512c0-9.131,0-18.262,0-27.392
		c0-0.427,0.085-0.512,0.512-0.512c1.024,0,2.048,0,3.072,0c0.341,0,0.427,0.085,0.597,0.427c1.195,3.584,2.475,7.083,3.669,10.582
		c0.427,1.109,0.768,2.304,1.195,3.413c0,0.085,0.085,0.17,0.17,0.341C208.149,32.598,208.149,32.598,208.234,32.598z"/>
	<path fill="#ED1C24" d="M243.306,32c0-4.522,0-9.045,0-13.568c0-0.512,0.17-0.598,0.597-0.598c2.048,0,4.011,0,6.059,0
		c2.816,0.085,5.035,1.28,6.059,4.011c0.341,1.024,0.512,2.219,0.597,3.328c0.085,4.438,0,8.875,0,13.312
		c0,1.28-0.171,2.56-0.597,3.84c-0.768,2.048-2.39,3.243-4.438,3.669c-1.024,0.256-2.219,0.256-3.243,0.256c-1.365,0-2.73,0-4.181,0
		c-0.768,0-0.768,0-0.768-0.768C243.306,40.96,243.306,36.522,243.306,32z M247.487,32c0,1.536,0,3.157,0,4.693
		c0,1.707,0,3.328,0,5.035c0,0.682,0,0.682,0.683,0.682c0.427,0,0.768,0,1.195,0c1.622,0,2.475-0.597,2.901-2.047
		c0.085-0.428,0.171-0.854,0.171-1.281c0-4.693,0-9.471,0-14.165c0-0.256,0-0.512-0.085-0.768c-0.256-1.28-0.683-2.219-2.304-2.39
		c-0.597-0.085-1.28,0-1.877-0.085c-0.512,0-0.683,0.085-0.683,0.683C247.487,25.515,247.487,28.757,247.487,32z"/>
	<path fill="#ED1C24" d="M363.199,17.834c2.389,0,4.779-0.085,7.082,0c2.475,0.085,4.438,1.28,5.463,3.584
		c0.512,1.195,0.682,2.39,0.682,3.669c0,4.523,0,9.045,0,13.482c0,1.707-0.256,3.328-1.195,4.779c-0.938,1.45-2.303,2.219-3.84,2.56
		c-0.938,0.171-1.963,0.257-2.9,0.257c-1.537,0-3.158,0-4.779,0c-0.426,0-0.598-0.172-0.598-0.598c0-7.68,0-15.36,0-22.955
		c0-1.451,0-2.901,0-4.352C363.199,18.176,363.199,18.005,363.199,17.834z M367.381,32c0,1.195,0,2.305,0,3.498
		c0,2.134,0,4.182,0,6.315c0,0.427,0.086,0.597,0.598,0.597c0.426,0,0.854,0,1.279,0c0.854-0.085,1.707-0.17,2.389-0.854
		c0.514-0.682,0.684-1.45,0.684-2.218c0-4.864,0-9.643,0-14.507c0-0.171,0-0.341,0-0.512c-0.17-1.024-0.512-2.048-1.707-2.389
		c-0.854-0.171-1.707-0.171-2.561-0.256c-0.512-0.085-0.682,0.17-0.682,0.683C367.381,25.6,367.381,28.757,367.381,32z"/>
	<path fill="#ED1C24" d="M166.25,17.75c2.731,0.085,5.376,0.085,8.021,0.341c2.133,0.17,3.669,1.536,4.522,3.499
		c0.512,1.109,0.683,2.304,0.683,3.499c0,4.523,0,9.045,0,13.653c0,1.622-0.256,3.243-1.109,4.608
		c-1.195,1.963-3.072,2.73-5.206,2.9c-2.219,0.172-4.438,0.086-6.656,0.086c-0.085,0-0.171,0-0.256-0.086
		C166.25,36.779,166.25,27.307,166.25,17.75z M170.261,32.085c0,1.28,0,2.56,0,3.754c0,1.963,0,3.926,0,5.889
		c0,0.512,0.171,0.682,0.683,0.682c0.427,0,0.854,0,1.195,0c1.195-0.085,2.389-0.341,2.816-1.706
		c0.171-0.513,0.256-1.109,0.256-1.622c0-4.693,0-9.386,0-14.08c0-0.512-0.085-1.024-0.17-1.451
		c-0.256-1.024-0.939-1.621-1.963-1.707c-0.683-0.085-1.365-0.085-2.048-0.085s-0.683,0-0.683,0.683
		C170.261,25.6,170.261,28.843,170.261,32.085z"/>
	<path fill="#ED1C24" d="M292.373,32c0-4.522,0-9.045,0-13.653c0-0.512,0.171-0.597,0.598-0.597c0.938,0,1.961,0,2.901,0
		c0.428,0,0.598,0.085,0.598,0.597c0,3.584,0,7.253,0,10.837c0,0.683,0,0.683,0.682,0.683c1.195,0,2.391,0,3.584,0
		c0.514,0,0.684-0.171,0.684-0.683c0-3.669,0-7.253,0-10.923c0-0.512,0.17-0.597,0.598-0.597c1.023,0,2.047,0,3.072,0
		c0.34,0,0.512,0.085,0.512,0.512c0,9.131,0,18.262,0,27.393c0,0.426-0.172,0.598-0.598,0.512c-1.023,0-1.963,0-2.986,0
		c-0.512,0-0.598-0.086-0.598-0.598c0-3.754,0-7.51,0-11.264c0-0.768,0-0.768-0.768-0.768c-1.195,0-2.305,0-3.5,0
		c-0.682,0-0.682,0-0.682,0.768c0,3.754,0,7.51,0,11.264c0,0.512-0.17,0.684-0.684,0.684c-0.938,0-1.877,0-2.9,0
		c-0.428,0-0.598-0.172-0.598-0.598C292.373,41.131,292.373,36.522,292.373,32z"/>
	<path fill="#ED1C24" d="M401.855,32.085c0,2.56,0,5.035,0,7.594c0,3.243-1.877,5.718-4.949,6.57
		c-3.756,1.024-7.424-0.853-8.449-4.521c-0.17-0.684-0.256-1.365-0.256-2.049c0-5.034,0-10.069,0-15.189
		c0-3.243,1.879-5.973,5.121-6.741c4.266-1.024,8.533,1.792,8.619,6.485C401.855,26.88,401.855,29.44,401.855,32.085z M392.299,32
		c0,2.646,0,5.291,0,7.936c0,0.684,0.256,1.195,0.768,1.621c0.854,0.769,1.963,0.939,2.986,0.513
		c1.023-0.341,1.535-1.109,1.621-2.219c0-0.256,0.086-0.512,0.086-0.769c0-4.607,0-9.215,0-13.909c0-0.427,0-0.938-0.086-1.365
		c-0.17-1.365-1.279-2.219-2.816-2.219c-1.451,0-2.559,1.024-2.559,2.389C392.213,26.709,392.299,29.354,392.299,32z"/>
	<path fill="#ED1C24" d="M350.314,17.834c0,0.256,0,0.427,0,0.598c0,6.827,0,13.568,0,20.394c0,0.598,0.084,1.28,0.17,1.878
		c0.256,1.194,1.279,1.706,2.305,1.706c1.109,0,2.133-0.854,2.303-1.877c0.086-0.342,0.086-0.768,0.086-1.109
		c0-6.997,0-13.909,0-20.906c0-0.512,0.17-0.683,0.684-0.683c1.023,0,1.961,0,2.986,0c0.342,0,0.426,0.085,0.426,0.427
		c0,7.424,0.086,14.762-0.084,22.187c0,2.646-1.623,4.522-4.012,5.546c-3.67,1.537-7.51-0.256-8.789-3.754
		c-0.256-0.768-0.428-1.536-0.428-2.305c0-7.168,0-14.335,0-21.418c0-0.427,0.086-0.598,0.598-0.598
		C347.924,17.834,349.033,17.834,350.314,17.834z"/>
	<path fill="#ED1C24" d="M317.973,38.145c0.512,0,1.023,0,1.451,0c0.426,0,0.598,0.085,0.598,0.597c0,0.598,0,1.194,0.17,1.792
		c0.426,1.451,1.535,1.877,2.816,1.792c1.791-0.085,2.475-0.769,2.645-2.56c0.086-1.109,0-2.305,0-3.414
		c0-1.023-0.598-1.706-1.535-2.133c-1.365-0.598-2.73-1.195-4.012-1.707c-2.389-0.938-3.584-2.73-3.926-5.291
		c-0.256-2.219-0.17-4.352,0.939-6.4c0.854-1.621,2.219-2.646,4.012-3.072c2.559-0.598,4.863-0.171,6.74,1.621
		c1.279,1.195,1.963,2.731,2.049,4.523c0,0.512,0,1.024,0,1.621c0,0.341-0.172,0.512-0.514,0.512c-1.023,0-2.133,0-3.156,0
		c-0.342,0-0.512-0.085-0.512-0.512c0.084-0.854,0-1.621-0.428-2.389c-0.512-1.024-1.279-1.451-2.389-1.451
		c-1.023,0-1.877,0.341-2.389,1.365c-0.598,1.365-0.512,2.816-0.256,4.181c0.256,1.109,1.279,1.451,2.133,1.877
		c1.109,0.427,2.303,0.938,3.412,1.365c2.219,0.854,3.5,2.475,3.756,4.864c0.256,1.963,0.256,3.84-0.086,5.803
		c-0.512,2.645-1.877,4.607-4.693,5.205c-3.156,0.683-5.973,0.086-8.021-2.73c-1.023-1.536-1.193-3.242-1.109-4.949
		c0-0.086,0.256-0.256,0.342-0.342C316.863,38.145,317.461,38.145,317.973,38.145L317.973,38.145z"/>
	<path fill="#ED1C24" d="M287.253,26.027c-0.512,0-1.024,0-1.622,0c-0.341,0-0.427-0.085-0.427-0.427
		c-0.085-0.854-0.17-1.622-0.426-2.39c-0.341-1.109-1.366-1.536-2.646-1.451c-1.109,0.085-2.048,0.768-2.219,1.792
		c-0.17,1.109-0.256,2.219-0.17,3.414c0.085,1.024,0.853,1.622,1.792,2.048c1.365,0.512,2.73,1.109,4.01,1.622
		c2.304,0.938,3.414,2.73,3.669,5.12c0.171,1.877,0.171,3.755-0.17,5.632c-0.512,2.561-1.877,4.352-4.523,4.949
		c-2.048,0.512-4.096,0.427-5.973-0.683c-2.133-1.28-3.157-3.243-3.243-5.718c-0.085-1.621,0-1.621,1.621-1.621
		c0.683,0,1.366,0,2.048,0c0.341,0,0.512,0.086,0.512,0.512c0,0.598,0,1.28,0.171,1.878c0.427,1.45,1.536,1.962,2.987,1.878
		c1.707-0.172,2.304-0.769,2.475-2.476c0.085-1.194,0-2.475,0-3.669c0-1.024-0.683-1.621-1.536-1.963
		c-1.365-0.598-2.73-1.109-4.096-1.707c-2.389-0.938-3.584-2.73-3.925-5.29c-0.256-2.048-0.17-4.011,0.683-5.888
		c0.854-1.877,2.219-3.072,4.267-3.584c2.39-0.597,4.523-0.256,6.4,1.365c1.451,1.195,2.304,2.816,2.389,4.779
		c0,0.512,0,1.109,0,1.621c0,0.341-0.085,0.512-0.427,0.512C288.362,26.027,287.765,26.027,287.253,26.027z"/>
	<path fill="#ED1C24" d="M414.57,25.941c-0.086-0.768-0.17-1.536-0.342-2.304c-0.426-1.792-2.475-2.645-4.01-1.707
		c-0.598,0.341-0.939,0.854-1.109,1.451c-0.342,1.109-0.342,2.304-0.172,3.499c0.172,1.024,0.939,1.622,1.793,1.963
		c1.621,0.683,3.156,1.28,4.777,1.962c1.537,0.683,2.391,1.962,2.732,3.583c0.084,0.598,0.17,1.195,0.17,1.793
		c0,1.194,0.086,2.475,0,3.669c-0.17,1.878-0.684,3.584-2.133,4.949c-1.109,0.938-2.391,1.45-3.84,1.536c-0.514,0-1.025,0-1.451,0
		c-2.646,0-5.377-2.048-6.059-4.522c-0.256-1.024-0.256-2.219-0.428-3.328c0-0.085,0.256-0.341,0.342-0.341c1.195,0,2.305,0,3.498,0
		c0.086,0,0.342,0.17,0.342,0.341c0.086,0.341,0,0.683,0,1.024c0.086,2.047,1.365,2.986,3.158,2.73
		c1.707-0.171,2.303-0.768,2.475-2.475c0.086-1.109,0.086-2.219,0.086-3.328c0-1.365-0.77-2.133-1.963-2.561
		c-1.365-0.598-2.816-1.109-4.182-1.792c-1.877-0.854-2.902-2.475-3.328-4.438c-0.342-1.792-0.342-3.584,0.17-5.376
		c0.684-2.389,2.135-4.011,4.609-4.608c2.475-0.598,4.777-0.256,6.74,1.536c1.279,1.109,2.049,2.56,1.963,4.352
		c0,0.768,0,1.451,0,2.304C417.131,25.941,415.85,25.941,414.57,25.941z"/>
	<path fill="#ED1C24" d="M274.111,46.25c-0.597,0-1.109,0-1.621,0c-0.683,0-1.28,0-1.963,0c-0.341,0-0.512-0.17-0.597-0.512
		c-0.341-1.621-0.597-3.242-0.938-4.863c-0.085-0.512-0.256-0.684-0.854-0.684c-1.451,0.086-2.901,0-4.267,0
		c-0.427,0-0.598,0.172-0.598,0.598c-0.341,1.707-0.683,3.414-1.024,5.12c0,0.085-0.17,0.341-0.256,0.341c-1.28,0-2.56,0-3.925,0
		c0.17-0.682,0.256-1.193,0.341-1.791c0.768-3.414,1.536-6.912,2.304-10.326c0.597-2.815,1.28-5.631,1.877-8.447
		c0.512-2.475,1.109-4.95,1.707-7.424c0.085-0.341,0.256-0.427,0.597-0.427c0.853,0,1.707,0,2.56,0c0.341,0,0.427,0.085,0.512,0.427
		c0.598,2.816,1.28,5.717,1.877,8.534c0.683,3.157,1.365,6.314,2.133,9.472c0.598,2.815,1.28,5.632,1.963,8.533
		C273.941,45.227,274.026,45.653,274.111,46.25z M266.09,26.368c-0.085,0-0.085,0-0.171,0c-0.256,1.451-0.597,2.986-0.854,4.437
		c-0.341,1.622-0.597,3.328-0.938,4.95c-0.085,0.256,0,0.427,0.341,0.427c1.024,0,2.133,0,3.157,0c0.341,0,0.427-0.086,0.341-0.427
		c-0.512-2.56-1.024-5.12-1.451-7.68C266.346,27.563,266.261,26.965,266.09,26.368z"/>
	<path fill="#ED1C24" d="M196.97,46.25c-0.598,0-1.195,0-1.707,0c-0.598,0-1.28,0-1.877,0c-0.427,0-0.512-0.17-0.598-0.512
		c-0.341-1.706-0.683-3.413-1.024-5.119c-0.085-0.428-0.256-0.513-0.597-0.513c-1.536,0-2.987,0-4.522,0
		c-0.342,0-0.512,0.085-0.598,0.427c-0.341,1.707-0.683,3.414-1.024,5.12c0,0.171-0.256,0.427-0.341,0.427c-1.195,0-2.389,0-3.584,0
		c-0.085,0-0.085,0-0.171-0.086c0.171-0.768,0.341-1.535,0.512-2.304c0.683-2.901,1.28-5.802,1.963-8.704
		c0.512-2.475,1.109-4.864,1.707-7.338c0.512-2.475,1.109-4.949,1.621-7.424c0.171-0.768,0.341-1.451,0.512-2.133
		c0-0.171,0.256-0.341,0.427-0.341c0.938,0,1.877,0,2.73,0c0.171,0,0.427,0.256,0.427,0.426c0.341,1.366,0.683,2.816,0.938,4.182
		c0.512,2.133,0.939,4.352,1.451,6.485c0.598,2.475,1.109,5.034,1.707,7.509c0.597,2.561,1.109,5.121,1.707,7.596
		C196.714,44.8,196.799,45.397,196.97,46.25z M188.949,26.368c-0.085,0-0.085,0-0.17,0c-0.598,3.243-1.28,6.485-1.877,9.813
		c0.256,0,0.427,0.085,0.597,0.085c0.854,0,1.707,0,2.646,0c0.768,0,0.768,0,0.597-0.769c-0.427-2.219-0.853-4.352-1.28-6.57
		C189.29,28.075,189.12,27.221,188.949,26.368z"/>
	<path fill="#ED1C24" d="M221.12,32c0-4.522,0-9.045,0-13.568c0-0.512,0.17-0.598,0.597-0.598c3.669,0,7.339,0,10.923,0
		c0.426,0,0.597,0.085,0.597,0.598c0,0.938,0,1.877,0,2.73c0,0.427-0.085,0.597-0.597,0.597c-2.304,0-4.608,0-6.912,0
		c-0.427,0-0.597,0.171-0.597,0.598c0,2.389,0,4.779,0,7.168c0,0.512,0.17,0.597,0.597,0.597c1.962,0,3.84,0,5.803,0
		c0.427,0,0.597,0.171,0.597,0.598c0,0.853,0,1.792,0,2.645c0,0.427-0.17,0.598-0.597,0.598c-1.963,0-3.925,0-5.888,0
		c-0.427,0-0.597,0.17-0.597,0.598c0,2.389,0,4.778,0,7.168c0,0.512,0.17,0.597,0.597,0.597c2.304,0,4.523,0,6.827,0
		c0.512,0,0.683,0.171,0.597,0.598c0,1.024,0,2.048,0,3.071c0,0.342-0.085,0.513-0.512,0.513c-3.669,0-7.424,0-11.093,0
		c-0.427,0-0.598-0.171-0.598-0.598C221.12,41.131,221.12,36.522,221.12,32z"/>
	<path fill="#ED1C24" d="M335.637,33.963c0-3.84,0-7.766,0-11.605c0-0.512-0.086-0.683-0.684-0.683c-1.193,0.085-2.303,0-3.498,0
		c-0.426,0-0.598-0.085-0.598-0.512c0-0.938,0-1.877,0-2.901c0-0.341,0.086-0.512,0.428-0.512c4.182,0,8.447,0,12.629,0
		c0.342,0,0.512,0.085,0.426,0.426c0,0.939,0,1.877,0,2.816c0,0.426-0.17,0.597-0.596,0.597c-1.195,0-2.305,0-3.5,0
		c-0.682,0-0.682,0-0.682,0.683c0,7.765,0,15.445,0,23.21c0,0.512-0.172,0.684-0.684,0.684c-0.938,0-1.877,0-2.9,0
		c-0.428,0-0.598-0.086-0.598-0.598C335.637,41.729,335.637,37.803,335.637,33.963z"/>
	<path fill="#ED1C24" d="M380.352,31.915c0-4.522,0-9.045,0-13.568c0-0.512,0.17-0.597,0.598-0.597c1.023,0,2.047,0,3.072,0
		c0.34,0,0.512,0.085,0.512,0.512c0,9.131,0,18.261,0,27.392c0,0.427-0.172,0.597-0.598,0.597c-1.023,0-1.963,0-2.986,0
		c-0.428,0-0.598-0.084-0.598-0.597C380.352,41.131,380.352,36.522,380.352,31.915z"/>
</g>
</svg>
